[
  {
    "model": "products_rest.clothing",
    "pk": 1,
    "fields": {
      "name": "Skort jumpsuit",
      "picture_url": "",
      "description": "Calling this piece a shorts jumpsuit doesn't really do it justice. Languid, slinky, and that elusive combo of glam and comfort."
    }
  },
  {
    "model": "products_rest.clothing",
    "pk": 2,
    "fields": {
      "name": "Batik sundress",
      "picture_url": "",
      "description": "Go from day to night in this bright, flattering dress."
    }
  },
  {
    "model": "products_rest.clothing",
    "pk": 3,
    "fields": {
      "name": "Polarized sunglasses",
      "picture_url": "",
      "description": "See everything with the utmost crispness in any natural lighting."
    }
  },
  {
    "model": "products_rest.clothing",
    "pk": 4,
    "fields": {
      "name": "Sunglasses, with built-in earrings!",
      "picture_url": "",
      "description": "Accused of over-accessorizing? Prove them wrong, there's no such thing."
    }
  },
  {
    "model": "products_rest.clothing",
    "pk": 5,
    "fields": {
      "name": "Carhartt x Nike",
      "picture_url": "",
      "description": "I guess Carhartt makes shoes now? Or Nike makes Carhartts? Who can keep up, but I have to say I love these."
    }
  },
  {
    "model": "products_rest.clothing",
    "pk": 6,
    "fields": {
      "name": "T-shirt",
      "picture_url": "",
      "description": "This skeleton is ready to peace right out."
    }
  },
  {
    "model": "products_rest.clothing",
    "pk": 7,
    "fields": {
      "name": "Tomato crewneck",
      "picture_url": "",
      "description": "Get ready for heirloom season with this comfy sweater!"
    }
  },
  {
    "model": "products_rest.clothing",
    "pk": 8,
    "fields": {
      "name": "Key necklace",
      "picture_url": "",
      "description": "Inspired by when we were kids and carried our housekey like this. But with Swarovski crystals!"
    }
  },
  {
    "model": "products_rest.clothing",
    "pk": 9,
    "fields": {
      "name": "Black leather Nikes",
      "picture_url": "",
      "description": "You can wear these with dressier clothes than most sneakers would dare. But not with motorcycle leathers."
    }
  },
  {
    "model": "products_rest.product",
    "pk": 1,
    "fields": {
      "name": "Epic hammer",
      "picture_url": "",
      "description": "When you have this hammer, all your problems will start to look like a Loki."
    }
  },
  {
    "model": "products_rest.product",
    "pk": 2,
    "fields": {
      "name": "Fresh cut fruit",
      "picture_url": "",
      "description": "Ready to mix up and sit poolside."
    }
  },
  {
    "model": "products_rest.product",
    "pk": 3,
    "fields": {
      "name": "Replica Apple Watch",
      "picture_url": "",
      "description": "Use your phone to keep track of your workouts, but want a timepiece that's au courant? This is your answer.  We don't need any stinkin' numbers, we're adults here!"
    }
  },
  {
    "model": "products_rest.product",
    "pk": 4,
    "fields": {
      "name": "Tall stool or small table",
      "picture_url": "",
      "description": "Need extra seating on hand, or a base for a large planter? We've got you covered."
    }
  },
  {
    "model": "products_rest.product",
    "pk": 5,
    "fields": {
      "name": "Minimalist bedframe",
      "picture_url": "",
      "description": "Sleek, squarish, but oh-so-dreamy. Set up your room like a chic hotel!"
    }
  },
  {
    "model": "products_rest.product",
    "pk": 6,
    "fields": {
      "name": "Salt bae poster",
      "picture_url": "",
      "description": "Probably just out of frame, salt bae is dusting this fresh food with the exact perfect seasoning."
    }
  },
  {
    "model": "products_rest.product",
    "pk": 7,
    "fields": {
      "name": "Mouthwatering focaccia poster",
      "picture_url": "",
      "description": "Is this focaccia or pastry dough? Are those banana slices? With this on your wall, your guests who couldn't decide if the dress was blue or gold will have a heyday."
    }
  },
  {
    "model": "products_rest.product",
    "pk": 8,
    "fields": {
      "name": "Cool coffee table book",
      "picture_url": "",
      "description": "It doesn't have to live on a coffee table, looks pretty good on this stool actually."
    }
  },
  {
    "model": "products_rest.product",
    "pk": 9,
    "fields": {
      "name": "Indoor/ Outdoor bench",
      "picture_url": "",
      "description": "Grace your entryway, front yard or back porch with this simple yet sturdy bench."
    }
  }
]
